<svg width="60" height="60" viewBox="0 0 60 60" fill="none" xmlns="http://www.w3.org/2000/svg">
<path d="M34.2857 22.5H40V25.3387C41.9362 23.6408 44.1873 22.6649 46.5131 22.5152C48.8389 22.3655 51.152 23.0477 53.2055 24.4888C55.2589 25.9299 56.9756 28.076 58.1723 30.6978C59.369 33.3196 60.0007 36.3187 60 39.375V60H54.2857V39.375C54.2857 34.0125 50.9286 30 47.1429 30C43.3571 30 40 34.0125 40 39.375V60H34.2857V22.5ZM28.5714 0V7.5H5.71429V26.25H28.5714V33.75H5.71429V52.5H28.5714V60H0V0H28.5714Z" fill="#626780"/>
</svg>
