<svg width="26" height="24" viewBox="0 0 26 24" fill="none" xmlns="http://www.w3.org/2000/svg">
<path d="M13 0C5.82098 0 0 5.37321 0 12C0 18.6268 5.82098 24 13 24C20.179 24 26 18.6268 26 12C26 5.37321 20.179 0 13 0ZM13 21.9643C7.03973 21.9643 2.20536 17.5018 2.20536 12C2.20536 6.49821 7.03973 2.03571 13 2.03571C18.9603 2.03571 23.7946 6.49821 23.7946 12C23.7946 17.5018 18.9603 21.9643 13 21.9643Z" fill="black" fill-opacity="0.9"/>
<path d="M18.0695 15.391L13.9315 12.6294V5.99993C13.9315 5.88207 13.8271 5.78564 13.6994 5.78564H12.3036C12.1759 5.78564 12.0715 5.88207 12.0715 5.99993V13.3767C12.0715 13.4464 12.1063 13.5106 12.1672 13.5508L16.9668 16.7812C17.0712 16.8508 17.2163 16.8294 17.2918 16.7356L18.1217 15.691C18.1971 15.5919 18.1739 15.458 18.0695 15.391Z" fill="black" fill-opacity="0.9"/>
</svg>
