<svg width="116" height="116" viewBox="0 0 116 116" fill="none" xmlns="http://www.w3.org/2000/svg">
<path d="M74.0444 0C70.765 0.00135176 67.6204 1.38764 65.3015 3.85418C62.9826 6.32072 61.6794 9.66568 61.6781 13.1539C61.6803 15.5387 62.2918 17.878 63.4472 19.9218C64.6026 21.9656 66.2584 23.637 68.2376 24.7573L61.4192 38.5181C59.7513 37.9409 58.0088 37.6448 56.2549 37.6408C51.7976 37.6408 47.5228 39.5243 44.371 42.8769C41.2191 46.2294 39.4485 50.7765 39.4485 55.5177C39.4562 56.7962 39.5928 58.07 39.856 59.3175L26.2862 64.6015C25.0051 62.4324 23.2277 60.6444 21.1204 59.4046C19.0131 58.1647 16.6446 57.5135 14.2364 57.5119C10.4619 57.5133 6.84225 59.1085 4.17283 61.9469C1.50341 64.7854 0.00254153 68.635 0 72.6499C0 76.6674 1.5004 80.5204 4.17114 83.3612C6.84187 86.2021 10.4642 87.798 14.2411 87.798C18.0173 87.7967 21.6384 86.2001 24.3081 83.3595C26.9778 80.5188 28.4775 76.6665 28.4775 72.6499C28.4719 71.562 28.3562 70.4778 28.1323 69.4162L41.1555 63.3315C42.5336 66.3455 44.6805 68.8867 47.3512 70.6651C50.0219 72.4435 53.1089 73.3876 56.2597 73.3895C59.9515 73.3846 63.5391 72.0869 66.4683 69.6968L77.3817 80.7493C75.0423 84.396 73.7907 88.7081 73.7903 93.1228C73.7903 96.0067 74.3243 98.8624 75.362 101.527C76.3997 104.191 77.9207 106.612 79.838 108.651C81.7553 110.69 84.0315 112.307 86.5365 113.41C89.0415 114.513 91.7263 115.081 94.4375 115.08C99.9114 115.08 105.161 112.767 109.032 108.651C112.903 104.534 115.079 98.9505 115.08 93.1279C115.08 87.3045 112.905 81.7197 109.034 77.6019C105.163 73.4841 99.9122 71.1708 94.4375 71.1708C89.6881 71.1744 85.0851 72.9199 81.4047 76.1131L69.7816 66.0959C71.9061 63.0313 73.0551 59.3253 73.0614 55.5177C73.0619 52.6156 72.3981 49.757 71.1274 47.1889C69.8567 44.6208 68.0174 42.4203 65.7682 40.7776L71.5414 26.0324C72.3648 26.2144 73.2034 26.3067 74.0444 26.3078C77.3254 26.3078 80.4721 24.9214 82.7921 22.4536C85.1121 19.9858 86.4155 16.6388 86.4155 13.1488C86.4129 9.66058 85.1084 6.31616 82.7887 3.85057C80.4689 1.38499 77.3238 -1.04808e-06 74.0444 0Z" fill="#626780"/>
</svg>
