<svg width="44" height="44" viewBox="0 0 44 44" fill="none" xmlns="http://www.w3.org/2000/svg">
<path d="M29.6728 16H27.7487C27.3302 16 26.9322 16.2157 26.6861 16.5856L20.2366 26.1837L17.3155 21.8337C17.0693 21.4683 16.6755 21.2481 16.2529 21.2481H14.3287C14.0621 21.2481 13.9062 21.5739 14.0621 21.8073L19.174 29.4153C19.2948 29.5962 19.454 29.7436 19.6384 29.8453C19.8229 29.947 20.0272 30 20.2346 30C20.4419 30 20.6463 29.947 20.8307 29.8453C21.0152 29.7436 21.1743 29.5962 21.2951 29.4153L29.9354 16.5592C30.0954 16.3258 29.9395 16 29.6728 16Z" fill="#3AC759"/>
<path d="M22 4C12.0598 4 4 12.0598 4 22C4 31.9402 12.0598 40 22 40C31.9402 40 40 31.9402 40 22C40 12.0598 31.9402 4 22 4ZM22 36.9464C13.7473 36.9464 7.05357 30.2527 7.05357 22C7.05357 13.7473 13.7473 7.05357 22 7.05357C30.2527 7.05357 36.9464 13.7473 36.9464 22C36.9464 30.2527 30.2527 36.9464 22 36.9464Z" fill="#3AC759"/>
</svg>
