<svg width="70" height="70" viewBox="0 0 70 70" fill="none" xmlns="http://www.w3.org/2000/svg">
<path d="M35.3201 26.1369C33.455 26.1369 31.6317 26.6471 30.0808 27.6028C28.53 28.5586 27.3213 29.9171 26.6075 31.5064C25.8937 33.0958 25.707 34.8447 26.0709 36.532C26.4347 38.2193 27.3329 39.7691 28.6518 40.9856C29.9707 42.202 31.651 43.0305 33.4803 43.3661C35.3097 43.7017 37.2058 43.5294 38.929 42.8711C40.6522 42.2128 42.1251 41.0979 43.1613 39.6675C44.1975 38.2371 44.7506 36.5554 44.7506 34.8351C44.7506 32.5282 43.7571 30.3158 41.9885 28.6846C40.2199 27.0533 37.8213 26.1369 35.3201 26.1369ZM35.3201 40.1409C34.1917 40.1409 33.0886 39.8323 32.1504 39.2541C31.2121 38.6758 30.4808 37.854 30.049 36.8924C29.6172 35.9308 29.5042 34.8727 29.7243 33.8519C29.9445 32.8311 30.4879 31.8935 31.2858 31.1575C32.0837 30.4215 33.1003 29.9204 34.2071 29.7173C35.3138 29.5143 36.461 29.6185 37.5035 30.0168C38.5461 30.4151 39.4371 31.0895 40.064 31.9549C40.691 32.8203 41.0256 33.8378 41.0256 34.8786C41.0256 35.5696 40.878 36.2539 40.5913 36.8924C40.3046 37.5308 39.8843 38.111 39.3545 38.5996C38.8247 39.0883 38.1957 39.4759 37.5035 39.7404C36.8113 40.0048 36.0694 40.1409 35.3201 40.1409Z" fill="#626780"/>
<path d="M50.0078 21.0485C46.659 17.9562 43.0569 15.1064 39.2335 12.5244C41.8484 11.0653 44.5931 9.8141 47.438 8.78418C48.1924 8.52323 48.8997 8.32752 49.607 8.13181C50.1809 8.77222 50.9201 9.26933 51.7566 9.57748C52.5932 9.88562 53.5003 9.99493 54.3946 9.89534C55.2889 9.79575 56.1417 9.49046 56.8747 9.00753C57.6077 8.5246 58.1974 7.87951 58.5896 7.13153C60.2731 7.27212 61.8616 7.91314 63.1162 8.95814C65.9218 11.5458 65.9925 16.7647 63.3519 23.2666C64.5072 24.68 65.5681 26.1152 66.5347 27.6156C66.9355 26.7458 67.3599 25.8978 67.69 25.0497C71.1557 16.6777 70.7077 9.82795 66.4404 5.95728C64.3055 4.09256 61.5249 2.98352 58.5896 2.82595C58.0998 1.88429 57.3015 1.10848 56.3074 0.608277C55.3134 0.108074 54.174 -0.0912024 53.0505 0.0386356C51.9269 0.168474 50.8761 0.620854 50.0466 1.33178C49.2171 2.04271 48.6509 2.9762 48.4282 4.0002C47.5559 4.2394 46.6836 4.4786 45.7641 4.80478C41.9972 6.17307 38.3878 7.88495 34.9898 9.91493C31.5848 7.85881 27.9679 6.11798 24.1918 4.7178C15.115 1.54298 7.68849 1.93439 3.5155 5.8703C-0.398154 9.50177 -1.03471 15.5252 1.55867 22.9621C0.96676 23.6642 0.590466 24.5001 0.469227 25.3824C0.347988 26.2646 0.486265 27.1607 0.869569 27.9767C1.25287 28.7928 1.86709 29.4987 2.64786 30.0205C3.42862 30.5423 4.34719 30.8608 5.30729 30.9427C6.06173 32.2691 6.8869 33.5956 7.80637 34.9003C5.61693 38.0413 3.77653 41.378 2.31311 44.8597C-1.15259 53.2099 -0.704645 60.0814 3.56265 63.9304C4.86096 65.0495 6.38971 65.9169 8.05825 66.4809C9.72678 67.0449 11.5011 67.2942 13.2761 67.2139C17.0421 67.1006 20.7554 66.3641 24.239 65.0394C28.0114 63.6669 31.6281 61.9553 35.0369 59.9292C38.4141 62.0018 42.0078 63.7574 45.7641 65.1698C48.5255 66.1721 51.4194 66.8302 54.3694 67.1269C54.8872 68.1425 55.7603 68.968 56.8483 69.4706C57.9363 69.9731 59.176 70.1235 60.3679 69.8976C61.5598 69.6717 62.6346 69.0827 63.4196 68.2251C64.2046 67.3676 64.6541 66.2915 64.6958 65.1698C65.3219 64.813 65.9065 64.3976 66.4404 63.9304C70.7077 59.9945 71.1557 53.2099 67.69 44.8597C63.6238 35.8907 57.6056 27.7865 50.0078 21.0485ZM22.5179 61.0165C15.4451 63.5172 9.66889 63.4737 6.83975 60.8425C4.0106 58.2113 3.93987 52.9707 6.67471 46.4036C7.78283 43.78 9.13157 41.2484 10.7062 38.8362C13.5141 42.3498 16.6034 45.6643 19.9481 48.7521C20.9619 49.6872 21.9993 50.6005 23.0366 51.4703C24.4512 50.8034 25.8893 50.0423 27.3511 49.187C25.9836 48.0563 24.6162 47.0125 23.2959 45.686C17.9897 40.8769 13.435 35.4098 9.7632 29.4422C10.5006 28.7373 10.9962 27.8475 11.188 26.8841C11.3798 25.9207 11.2593 24.9265 10.8416 24.0259C10.4239 23.1254 9.72744 22.3584 8.8395 21.8211C7.95156 21.2838 6.91152 20.9999 5.84954 21.0051C4.08133 15.5687 4.38782 11.2414 6.86332 8.95814C7.7352 8.24943 8.7511 7.70761 9.85198 7.36417C10.9529 7.02074 12.1168 6.88252 13.2761 6.95757C16.4574 7.05556 19.5947 7.67404 22.5415 8.78418C25.3864 9.8141 28.1311 11.0653 30.746 12.5244C26.9226 15.1064 23.3205 17.9562 19.9717 21.0485C18.9343 22.0053 17.9206 23.0056 16.9304 24.0059C17.6402 25.3836 18.4272 26.7264 19.288 28.0288C20.5611 26.7023 21.8578 25.3976 23.2488 24.1146C26.876 20.7727 30.8212 17.7379 35.0369 15.0468C39.2076 17.7481 43.1127 20.7824 46.7071 24.1146C50.3311 27.4596 53.6214 31.0985 56.5384 34.9873C53.6141 38.8709 50.3243 42.5093 46.7071 45.86C39.847 52.3785 31.6157 57.536 22.5179 61.0165ZM63.1162 60.8208L62.739 61.1035C62.1199 60.6194 61.3895 60.2715 60.6031 60.0862C59.8167 59.9009 58.995 59.883 58.2 60.0339C57.405 60.1847 56.6576 60.5003 56.0144 60.9569C55.3712 61.4135 54.849 61.999 54.4873 62.6691C52.0638 62.3821 49.6882 61.8197 47.4144 60.9947C44.5654 59.9734 41.8199 58.7218 39.2099 57.2545C43.0333 54.6725 46.6354 51.8227 49.9842 48.7304C53.3421 45.6538 56.4323 42.3383 59.2261 38.8145C60.8078 41.2264 62.1644 43.758 63.2812 46.3819C65.9689 52.9707 65.9689 58.2331 63.1162 60.8208Z" fill="#626780"/>
</svg>
