<svg width="16" height="30" viewBox="0 0 16 30" fill="none" xmlns="http://www.w3.org/2000/svg">
<path d="M10.3283 29.995V16.335H14.9366L15.6216 10.9867H10.3283V7.58004C10.3283 6.0367 10.7583 4.98004 12.9733 4.98004H15.78V0.211705C14.4144 0.0653563 13.0417 -0.0053075 11.6683 3.78031e-05C7.59497 3.78031e-05 4.79831 2.4867 4.79831 7.0517V10.9767H0.219971V16.325H4.8083V29.995H10.3283Z" fill="#062758"/>
</svg>
