<svg width="102" height="102" viewBox="0 0 102 102" fill="none" xmlns="http://www.w3.org/2000/svg">
<circle cx="51" cy="51" r="51" fill="#C4C4C4" fill-opacity="0.5"/>
<path d="M41.3751 32.2292C41.617 31.9867 41.9044 31.7943 42.2208 31.663C42.5372 31.5317 42.8763 31.4641 43.2189 31.4641C43.5614 31.4641 43.9006 31.5317 44.217 31.663C44.5333 31.7943 44.8207 31.9867 45.0626 32.2292L62.3751 49.5417C62.5682 49.7344 62.7215 49.9634 62.826 50.2154C62.9306 50.4674 62.9844 50.7376 62.9844 51.0104C62.9844 51.2833 62.9306 51.5535 62.826 51.8055C62.7215 52.0575 62.5682 52.2864 62.3751 52.4792L45.0626 69.7917C44.0418 70.8125 42.3959 70.8125 41.3751 69.7917C40.3543 68.7709 40.3543 67.125 41.3751 66.1042L56.4584 51L41.3543 35.8958C40.3543 34.8958 40.3543 33.2292 41.3751 32.2292Z" fill="white"/>
</svg>
