<svg width="102" height="102" viewBox="0 0 102 102" fill="none" xmlns="http://www.w3.org/2000/svg">
<circle cx="51" cy="51" r="51" fill="#C4C4C4" fill-opacity="0.5"/>
<path d="M60.6249 32.2292C60.383 31.9867 60.0956 31.7943 59.7792 31.663C59.4628 31.5317 59.1237 31.4641 58.7811 31.4641C58.4386 31.4641 58.0994 31.5317 57.783 31.663C57.4667 31.7943 57.1793 31.9867 56.9374 32.2292L39.6249 49.5417C39.4318 49.7344 39.2785 49.9634 39.174 50.2154C39.0694 50.4674 39.0156 50.7376 39.0156 51.0104C39.0156 51.2833 39.0694 51.5535 39.174 51.8055C39.2785 52.0575 39.4318 52.2864 39.6249 52.4792L56.9374 69.7917C57.9582 70.8125 59.6041 70.8125 60.6249 69.7917C61.6457 68.7709 61.6457 67.125 60.6249 66.1042L45.5416 51L60.6457 35.8958C61.6457 34.8958 61.6457 33.2292 60.6249 32.2292Z" fill="white"/>
</svg>
