<svg width="77" height="70" viewBox="0 0 77 70" fill="none" xmlns="http://www.w3.org/2000/svg">
<path d="M38.0779 32.7153C44.9779 32.7153 50.3446 27.2026 50.3446 20.437C50.3446 13.6715 44.7223 8.40936 37.8223 8.40936C30.9223 8.40936 25.5557 13.922 25.5557 20.437C25.5557 27.2026 31.1779 32.7153 38.0779 32.7153ZM37.8223 13.4209C38.0779 13.4209 38.0779 13.4209 37.8223 13.4209C41.9112 13.4209 45.2334 16.6784 45.2334 20.6876C45.2334 24.6968 41.9112 27.7037 37.8223 27.7037C33.7334 27.7037 30.6668 24.4463 30.6668 20.6876C30.6668 16.6784 33.989 13.4209 37.8223 13.4209Z" fill="#626780"/>
<path d="M75.8998 31.2119C71.0443 26.9521 64.6554 24.6969 58.011 24.9475H55.9665C55.4554 26.9521 54.6887 28.7062 53.6665 30.2096C55.1998 29.959 56.4776 29.959 58.011 29.959C62.8665 29.7085 67.7221 31.2119 71.5554 33.9683V52.0098H76.6665V31.9636L75.8998 31.2119Z" fill="#626780"/>
<path d="M52.1334 8.91068C53.4112 5.90376 56.989 4.4003 60.3112 5.65318C63.3779 6.90606 64.9112 10.4141 63.6334 13.6716C62.6112 15.9268 60.3112 17.4303 58.0112 17.4303C57.5001 17.4303 56.7334 17.4303 56.2223 17.1797C56.4779 18.4326 56.4779 19.6855 56.4779 20.6878V22.1912C56.989 22.1912 57.5001 22.4418 58.0112 22.4418C64.4001 22.4418 69.5112 17.4303 69.5112 11.4164C69.5112 5.15203 64.4001 0.140503 58.2668 0.140503C54.1779 0.140503 50.6001 2.14511 48.5557 5.65318C49.8334 6.40491 51.1112 7.40722 52.1334 8.91068Z" fill="#626780"/>
<path d="M23 30.4603C21.9778 28.9568 21.2111 27.2028 20.7 25.1981H18.6556C12.0111 24.9476 5.62222 27.2028 0.766667 31.212L0 31.9637V52.0098H5.11111V33.9683C9.2 31.212 13.8 29.7085 18.6556 29.9591C20.1889 29.9591 21.7222 30.2097 23 30.4603Z" fill="#626780"/>
<path d="M18.6557 22.1911C19.1668 22.1911 19.6779 22.1911 20.189 21.9405V20.4371C20.189 19.1842 20.189 17.9313 20.4446 16.929C19.9334 17.1796 19.1668 17.1796 18.6557 17.1796C15.3334 17.1796 12.5223 14.4232 12.5223 11.1657C12.5223 7.90824 15.3334 5.1519 18.6557 5.1519C21.2112 5.1519 23.5112 6.65536 24.5334 8.91054C25.5557 7.65766 27.089 6.40478 28.3668 5.40247C25.0446 0.140371 18.1446 -1.61366 12.7779 1.64383C7.41123 4.90132 5.62234 11.6669 8.94456 16.929C10.989 20.1865 14.5668 22.1911 18.6557 22.1911Z" fill="#626780"/>
<path d="M59.0331 46.2465L58.522 45.4948C53.4109 39.9821 46.2553 36.7246 38.5887 36.9752C30.922 36.7246 23.5109 39.9821 18.3998 45.4948L17.8887 46.2465V65.2903C17.8887 67.5455 19.6776 69.5501 22.2331 69.5501H54.9442C57.2442 69.5501 59.2887 67.5455 59.2887 65.2903V46.2465H59.0331ZM53.922 64.5386H22.9998V48.0006C27.0887 43.9913 32.7109 41.9867 38.5887 41.9867C44.2109 41.7362 49.8331 43.9913 53.922 48.0006V64.5386Z" fill="#626780"/>
</svg>
